solid FrontAndBack
  facet normal 0 0 -1
    outer loop
      vertex 1 1 0
      vertex 1 2.22045e-16 0
      vertex -1.66533e-16 1 0
    endloop
  endfacet
  facet normal 0 0 -1
    outer loop
      vertex 1 2.22045e-16 0
      vertex 1.11022e-16 0 0
      vertex -1.66533e-16 1 0
    endloop
  endfacet
  facet normal 0 0 1
    outer loop
      vertex 1 2.22045e-16 1
      vertex 1 1 1
      vertex 1.11022e-16 0 1
    endloop
  endfacet
  facet normal 0 0 1
    outer loop
      vertex 1 1 1
      vertex -1.66533e-16 1 1
      vertex 1.11022e-16 0 1
    endloop
  endfacet
endsolid FrontAndBack
solid MovingWall
  facet normal 0 1 0
    outer loop
      vertex -1.66533e-16 1 1
      vertex 1 1 1
      vertex -1.66533e-16 1 0
    endloop
  endfacet
  facet normal 0 1 0
    outer loop
      vertex 1 1 1
      vertex 1 1 0
      vertex -1.66533e-16 1 0
    endloop
  endfacet
endsolid MovingWall
solid FixedWalls
  facet normal 1 0 0
    outer loop
      vertex 1 1 1
      vertex 1 2.22045e-16 1
      vertex 1 1 0
    endloop
  endfacet
  facet normal 1 0 0
    outer loop
      vertex 1 2.22045e-16 1
      vertex 1 2.22045e-16 0
      vertex 1 1 0
    endloop
  endfacet
  facet normal -1 -2.77556e-16 0
    outer loop
      vertex 1.11022e-16 0 1
      vertex -1.66533e-16 1 1
      vertex 1.11022e-16 0 0
    endloop
  endfacet
  facet normal -1 -2.77556e-16 0
    outer loop
      vertex -1.66533e-16 1 1
      vertex -1.66533e-16 1 0
      vertex 1.11022e-16 0 0
    endloop
  endfacet
  facet normal 2.22045e-16 -1 0
    outer loop
      vertex 1 2.22045e-16 1
      vertex 1.11022e-16 0 1
      vertex 1 2.22045e-16 0
    endloop
  endfacet
  facet normal 2.22045e-16 -1 0
    outer loop
      vertex 1.11022e-16 0 1
      vertex 1.11022e-16 0 0
      vertex 1 2.22045e-16 0
    endloop
  endfacet
endsolid FixedWalls
